<?xml version="1.0" standalone="no"?>
<!DOCTYPE svg PUBLIC "-//W3C//DTD SVG 1.1//EN" "http://www.w3.org/Graphics/SVG/1.1/DTD/svg11.dtd">
<svg xmlns="http://www.w3.org/2000/svg">
<metadata>Copyright (C) 2016 by original authors @ fontello.com</metadata>
<defs>
<font id="fontello" horiz-adv-x="1000" >
<font-face font-family="fontello" font-weight="400" font-stretch="normal" units-per-em="1000" ascent="850" descent="-150" />
<missing-glyph horiz-adv-x="1000" />
<glyph glyph-name="heart" unicode="&#xe800;" d="M500-79q-14 0-25 10l-348 336q-5 5-15 15t-31 37-38 54-30 67-13 77q0 123 71 192t196 70q34 0 70-12t67-33 54-38 42-38q20 20 42 38t54 38 67 33 70 12q125 0 196-70t71-192q0-123-128-251l-347-335q-10-10-25-10z" horiz-adv-x="1000" />

<glyph glyph-name="home" unicode="&#xe801;" d="M786 296v-267q0-15-11-25t-25-11h-214v214h-143v-214h-214q-15 0-25 11t-11 25v267q0 1 0 2t0 2l321 264 321-264q1-1 1-4z m124 39l-34-41q-5-5-12-6h-2q-7 0-12 3l-386 322-386-322q-7-4-13-3-7 1-12 6l-35 41q-4 6-3 13t6 12l401 334q18 15 42 15t43-15l136-113v108q0 8 5 13t13 5h107q8 0 13-5t5-13v-227l122-102q6-4 6-12t-4-13z" horiz-adv-x="928.6" />

<glyph glyph-name="group" unicode="&#xe802;" d="M0 106l0 134q0 26 18 32l171 80q-66 39-68 131 0 56 35 103 37 41 90 43 31 0 63-19-49-125 23-237-12-11-25-19l-114-55q-48-23-52-84l0-143-114 0q-25 0-27 34z m193-59l0 168q0 27 22 37l152 70 57 28q-37 23-60 66t-22 94q0 76 46 130t110 54 109-54 45-130q0-105-78-158l61-30 146-70q24-10 24-37l0-168q-2-37-37-41l-541 0q-14 2-24 14t-10 27z m473 330q68 106 22 231 31 19 66 21 49 0 90-43 35-41 35-103 0-82-65-131l168-80q18-10 18-32l0-134q0-32-27-34l-118 0 0 143q0 57-50 84l-110 53q-15 8-29 25z" horiz-adv-x="1000" />

<glyph glyph-name="search" unicode="&#xe803;" d="M643 386q0 103-73 176t-177 74-177-74-73-176 73-177 177-73 177 73 73 177z m286-465q0-29-22-50t-50-21q-30 0-50 21l-191 191q-100-69-223-69-80 0-153 31t-125 84-84 125-31 153 31 152 84 126 125 84 153 31 153-31 125-84 84-126 31-152q0-123-69-223l191-191q21-21 21-51z" horiz-adv-x="928.6" />

<glyph glyph-name="menu" unicode="&#xe804;" d="M650 400q22 0 36-15t14-35-15-35-35-15l-600 0q-20 0-35 15t-15 35 14 35 36 15l600 0z m-600 100q-20 0-35 15t-15 35 14 35 36 15l600 0q22 0 36-15t14-35-15-35-35-15l-600 0z m600-300q22 0 36-15t14-35-15-35-35-15l-600 0q-20 0-35 15t-15 35 14 35 36 15l600 0z" horiz-adv-x="700" />

<glyph glyph-name="star" unicode="&#xe805;" d="M929 489q0-12-15-27l-202-197 48-279q0-4 0-12 0-11-6-19t-17-9q-10 0-22 7l-251 132-250-132q-12-7-23-7-11 0-17 9t-6 19q0 4 1 12l48 279-203 197q-14 15-14 27 0 21 31 26l280 40 126 254q11 23 27 23t28-23l125-254 280-40q32-5 32-26z" horiz-adv-x="928.6" />

<glyph glyph-name="location" unicode="&#xe806;" d="M429 493q0 59-42 101t-101 42-101-42-42-101 42-101 101-42 101 42 42 101z m142 0q0-61-18-100l-203-432q-9-18-27-29t-37-11-38 11-26 29l-204 432q-18 39-18 100 0 118 84 202t202 84 202-84 83-202z" horiz-adv-x="571.4" />

<glyph glyph-name="down-open" unicode="&#xe807;" d="M939 399l-414-413q-10-11-25-11t-25 11l-414 413q-11 11-11 26t11 25l93 92q10 11 25 11t25-11l296-296 296 296q11 11 25 11t26-11l92-92q11-11 11-25t-11-26z" horiz-adv-x="1000" />

<glyph glyph-name="up-open" unicode="&#xe808;" d="M939 107l-92-92q-11-10-26-10t-25 10l-296 297-296-297q-11-10-25-10t-25 10l-93 92q-11 11-11 26t11 25l414 414q11 10 25 10t25-10l414-414q11-11 11-25t-11-26z" horiz-adv-x="1000" />

<glyph glyph-name="thumbs-up-alt" unicode="&#xf164;" d="M143 100q0 15-11 25t-25 11q-15 0-25-11t-11-25q0-15 11-25t25-11q15 0 25 11t11 25z m89 286v-357q0-15-10-25t-26-11h-160q-15 0-25 11t-11 25v357q0 14 11 25t25 10h160q15 0 26-10t10-25z m661 0q0-48-31-83 9-25 9-43 1-42-24-76 9-31 0-66-9-31-31-52 5-62-27-101-36-43-110-44h-72q-37 0-80 9t-68 16-67 22q-69 24-88 25-15 0-25 11t-11 25v357q0 14 10 25t24 11q13 1 42 33t57 67q38 49 56 67 10 10 17 27t10 27 8 34q4 22 7 34t11 29 19 28q10 11 25 11 25 0 46-6t33-15 22-22 14-25 7-28 2-25 1-22q0-21-6-43t-10-33-16-31q-1-4-5-10t-6-13-5-13h155q43 0 75-32t32-75z" horiz-adv-x="928.6" />

<glyph glyph-name="volume-control-phone" unicode="&#xf2a0;" d="M344-93q0 7-7 33t-17 60-11 38q-1 2-3 15t-5 20-7 12q-9 8-29 8-13 0-39-3t-40-3q-19 0-26 6-3 3-6 8t-4 12-4 13-3 10q-20 72-20 143t20 142q1 2 3 10t4 14 4 11 6 8q7 7 26 7 14 0 40-3t39-4q20 0 29 8 5 5 7 12t5 20 3 15q1 5 11 39t17 59 7 33q0 12-24 29t-42 24q-11 4-25 4-19 0-55-10-32-9-54-22t-39-37-26-39-25-53q-4-7-5-11-28-59-38-120t-11-136 11-137 38-120q31-68 46-90 35-51 100-71l3-1q36-10 55-10 14 0 25 4 18 7 42 24t24 29z m89 510q-14 0-25 11t-11 25 11 25q21 21 21 51 0 29-21 50-11 11-11 26t11 25 25 10 25-10q42-42 42-101t-42-101q-12-11-25-11z m101-101q-15 0-25 11-11 10-11 25t11 25q62 63 62 152t-62 151q-11 11-11 26t11 25 25 10 25-10q84-84 84-202t-84-202q-10-11-25-11z m101-101q-15 0-25 11-11 10-11 25t11 25q50 51 77 116t27 137-27 136-77 116q-11 11-11 26t11 25 25 10 25-10q61-61 93-139t33-164-33-164-93-139q-10-11-25-11z" horiz-adv-x="785.7" />
</font>
</defs>
</svg>